	


			ROLE				NAME


		GTK/Ul Team			1)Piyush Verma.
							2)Abhinav Kachole.
								

			
		The project is completed uneder the guidance of  
		Shashi Sir , Sachin Sir and Core2web Family.







